{
  "type": "network",
  "version": "1.0",
  "data": "data.json",
  "logo": {
    "text": "Benny Chin",
    "file": "WenLab_Logo_scaled.png",
    "link": ""
  },
  "text": {
    "title": "Global Bilateral Migration Network",
    "more": "Global matrices of bilateral migrant stocks spanning the period 1960-2000, disaggregated by gender and based primarily on the foreign-born concept are presented. Over one thousand census and population register records are combined to construct decennial matrices corresponding to the last five completed census rounds.\n\n\nThe network shows the groups of modularity classes, which are calculated based on the number of migrated people between countries. The countries fell in the same class means that they have more people migrated to the other countries in the class. ",
    "intro": "Year: 2000\u003cbr\u003e\nsource of data:\nhttp://data.worldbank.org/data-catalog/global-bilateral-migration-database"
  },
  "legend": {
    "edgeLabel": "migration",
    "colorLabel": "modularity class",
    "nodeLabel": "country"
  },
  "features": {
    "search": true,
    "groupSelectorAttribute": "Modularity Class",
    "hoverBehavior": "dim"
  },
  "informationPanel": {
    "imageAttribute": false,
    "groupByEdgeDirection": false
  },
  "sigma": {
    "graphProperties": {
      "minEdgeSize": 0.2,
      "maxNodeSize": 7,
      "maxEdgeSize": 0.5,
      "minNodeSize": 1
    },
    "drawingProperties": {
      "labelThreshold": 10,
      "hoverFontStyle": "bold",
      "defaultEdgeType": "curve",
      "defaultLabelColor": "#000",
      "defaultLabelHoverColor": "#fff",
      "defaultLabelSize": 14,
      "activeFontStyle": "bold",
      "fontStyle": "bold",
      "defaultHoverLabelBGColor": "#002147",
      "defaultLabelBGColor": "#ddd"
    },
    "mouseProperties": {
      "minRatio": 0.75,
      "maxRatio": 20
    }
  }
}